bp_top/test/tb/bp_single_demo/rv64ui_p_add_rom_simout.txt
Notice: timing checks disabled with +notimingcheck at compile-time
Chronologic VCS simulator copyright 1991-2016
Contains Synopsys proprietary information.
Compiler version L-2016.06-SP2-15_Full64; Runtime version L-2016.06-SP2-15_Full64;  Feb  9 03:12 2019
test_bp.clock_gen with cycle_time_p          10
## bsg_mem_1r1w: instantiating width_p=         38, els_p=          2, read_write_same_addr_p=          0, harden_p=          0 (test_bp.DUT.me.network.cce_lce_cmd_network.rof[0].fi2.efi3.coherence_network_channel_node.rof[0].fi.twofer.mem_1r1w)
## bsg_mem_1r1w: instantiating width_p=         38, els_p=          2, read_write_same_addr_p=          0, harden_p=          0 (test_bp.DUT.me.network.cce_lce_cmd_network.rof[0].fi2.efi3.coherence_network_channel_node.rof[2].fi.twofer.mem_1r1w)
## bsg_mem_1r1w: instantiating width_p=         38, els_p=          2, read_write_same_addr_p=          0, harden_p=          0 (test_bp.DUT.me.network.cce_lce_cmd_network.rof[0].fi2.efi3.coherence_network_channel_node.rof[4].fi.twofer.mem_1r1w)
## bsg_mem_1r1w: instantiating width_p=         38, els_p=          2, read_write_same_addr_p=          0, harden_p=          0 (test_bp.DUT.me.network.cce_lce_cmd_network.rof[1].efi2.fi9.coherence_network_channel_node.rof[0].fi.twofer.mem_1r1w)
## bsg_mem_1r1w: instantiating width_p=         38, els_p=          2, read_write_same_addr_p=          0, harden_p=          0 (test_bp.DUT.me.network.cce_lce_cmd_network.rof[1].efi2.fi9.coherence_network_channel_node.rof[1].fi.twofer.mem_1r1w)
## bsg_mem_1r1w: instantiating width_p=        542, els_p=          2, read_write_same_addr_p=          0, harden_p=          0 (test_bp.DUT.me.network.cce_lce_data_cmd_network.rof[0].fi2.efi3.coherence_network_channel_node.rof[0].fi.twofer.mem_1r1w)
## bsg_mem_1r1w: instantiating width_p=        542, els_p=          2, read_write_same_addr_p=          0, harden_p=          0 (test_bp.DUT.me.network.cce_lce_data_cmd_network.rof[0].fi2.efi3.coherence_network_channel_node.rof[2].fi.twofer.mem_1r1w)
## bsg_mem_1r1w: instantiating width_p=        542, els_p=          2, read_write_same_addr_p=          0, harden_p=          0 (test_bp.DUT.me.network.cce_lce_data_cmd_network.rof[0].fi2.efi3.coherence_network_channel_node.rof[4].fi.twofer.mem_1r1w)
## bsg_mem_1r1w: instantiating width_p=        542, els_p=          2, read_write_same_addr_p=          0, harden_p=          0 (test_bp.DUT.me.network.cce_lce_data_cmd_network.rof[1].efi2.fi9.coherence_network_channel_node.rof[0].fi.twofer.mem_1r1w)
## bsg_mem_1r1w: instantiating width_p=        542, els_p=          2, read_write_same_addr_p=          0, harden_p=          0 (test_bp.DUT.me.network.cce_lce_data_cmd_network.rof[1].efi2.fi9.coherence_network_channel_node.rof[1].fi.twofer.mem_1r1w)
## bsg_mem_1r1w: instantiating width_p=         32, els_p=          2, read_write_same_addr_p=          0, harden_p=          0 (test_bp.DUT.me.network.lce_cce_req_network.rof[0].fi2.efi3.coherence_network_channel_node.rof[0].fi.twofer.mem_1r1w)
## bsg_mem_1r1w: instantiating width_p=         32, els_p=          2, read_write_same_addr_p=          0, harden_p=          0 (test_bp.DUT.me.network.lce_cce_req_network.rof[0].fi2.efi3.coherence_network_channel_node.rof[2].fi.twofer.mem_1r1w)
## bsg_mem_1r1w: instantiating width_p=         32, els_p=          2, read_write_same_addr_p=          0, harden_p=          0 (test_bp.DUT.me.network.lce_cce_req_network.rof[0].fi2.efi3.coherence_network_channel_node.rof[4].fi.twofer.mem_1r1w)
## bsg_mem_1r1w: instantiating width_p=         32, els_p=          2, read_write_same_addr_p=          0, harden_p=          0 (test_bp.DUT.me.network.lce_cce_req_network.rof[1].efi2.fi7.coherence_network_channel_node.rof[1].fi.twofer.mem_1r1w)
## bsg_mem_1r1w: instantiating width_p=         32, els_p=          2, read_write_same_addr_p=          0, harden_p=          0 (test_bp.DUT.me.network.lce_cce_req_network.rof[1].efi2.fi7.coherence_network_channel_node.rof[4].fi.twofer.mem_1r1w)
## bsg_mem_1r1w: instantiating width_p=        539, els_p=          2, read_write_same_addr_p=          0, harden_p=          0 (test_bp.DUT.me.network.lce_cce_data_resp_network.rof[0].fi2.efi3.coherence_network_channel_node.rof[0].fi.twofer.mem_1r1w)
## bsg_mem_1r1w: instantiating width_p=        539, els_p=          2, read_write_same_addr_p=          0, harden_p=          0 (test_bp.DUT.me.network.lce_cce_data_resp_network.rof[0].fi2.efi3.coherence_network_channel_node.rof[2].fi.twofer.mem_1r1w)
## bsg_mem_1r1w: instantiating width_p=        539, els_p=          2, read_write_same_addr_p=          0, harden_p=          0 (test_bp.DUT.me.network.lce_cce_data_resp_network.rof[0].fi2.efi3.coherence_network_channel_node.rof[4].fi.twofer.mem_1r1w)
## bsg_mem_1r1w: instantiating width_p=        539, els_p=          2, read_write_same_addr_p=          0, harden_p=          0 (test_bp.DUT.me.network.lce_cce_data_resp_network.rof[1].efi2.fi7.coherence_network_channel_node.rof[1].fi.twofer.mem_1r1w)
## bsg_mem_1r1w: instantiating width_p=        539, els_p=          2, read_write_same_addr_p=          0, harden_p=          0 (test_bp.DUT.me.network.lce_cce_data_resp_network.rof[1].efi2.fi7.coherence_network_channel_node.rof[4].fi.twofer.mem_1r1w)
## bsg_mem_1r1w: instantiating width_p=        541, els_p=          2, read_write_same_addr_p=          0, harden_p=          0 (test_bp.DUT.me.network.lce_lce_tr_resp_network.rof[0].fi2.efi3.coherence_network_channel_node.rof[0].fi.twofer.mem_1r1w)
## bsg_mem_1r1w: instantiating width_p=        541, els_p=          2, read_write_same_addr_p=          0, harden_p=          0 (test_bp.DUT.me.network.lce_lce_tr_resp_network.rof[0].fi2.efi3.coherence_network_channel_node.rof[2].fi.twofer.mem_1r1w)
## bsg_mem_1r1w: instantiating width_p=        541, els_p=          2, read_write_same_addr_p=          0, harden_p=          0 (test_bp.DUT.me.network.lce_lce_tr_resp_network.rof[0].fi2.efi3.coherence_network_channel_node.rof[4].fi.twofer.mem_1r1w)
## bsg_mem_1r1w: instantiating width_p=        541, els_p=          2, read_write_same_addr_p=          0, harden_p=          0 (test_bp.DUT.me.network.lce_lce_tr_resp_network.rof[1].efi2.fi5.coherence_network_channel_node.rof[0].fi.twofer.mem_1r1w)
## bsg_mem_1r1w: instantiating width_p=        541, els_p=          2, read_write_same_addr_p=          0, harden_p=          0 (test_bp.DUT.me.network.lce_lce_tr_resp_network.rof[1].efi2.fi5.coherence_network_channel_node.rof[1].fi.twofer.mem_1r1w)
## bsg_mem_1r1w: instantiating width_p=        541, els_p=          2, read_write_same_addr_p=          0, harden_p=          0 (test_bp.DUT.me.network.lce_lce_tr_resp_network.rof[1].efi2.fi5.coherence_network_channel_node.rof[4].fi.twofer.mem_1r1w)
## bsg_mem_1r1w: instantiating width_p=        537, els_p=          2, read_write_same_addr_p=          0, harden_p=          0 (test_bp.DUT.me.genblk1[0].bp_cce_top.lce_cce_data_resp_fifo.mem_1r1w)
## bsg_mem_1r1w: instantiating width_p=         33, els_p=          2, read_write_same_addr_p=          0, harden_p=          0 (test_bp.DUT.me.genblk1[0].bp_cce_top.mem_cce_resp_fifo.mem_1r1w)
## bsg_mem_1r1w: instantiating width_p=        539, els_p=          2, read_write_same_addr_p=          0, harden_p=          0 (test_bp.DUT.me.genblk1[0].bp_cce_top.mem_cce_data_resp_fifo.mem_1r1w)
## bsg_mem_1r1w: instantiating width_p=        567, els_p=          2, read_write_same_addr_p=          0, harden_p=          0 (test_bp.DUT.me.genblk1[0].bp_cce_top.cce_mem_data_cmd_fifo.mem_1r1w)
## bsg_mem_1rw_sync_mask_write_bit: instantiating width_p=        224, els_p=         16 (test_bp.DUT.me.genblk1[0].bp_cce_top.bp_cce.directory.wg_ram)
## bsg_mem_1rw_sync_synth: instantiating width_p=        512, els_p=        512 (test_bp.DUT.me.genblk1[0].bp_mem.mem)
## bsg_mem_1r1w: instantiating width_p=         64, els_p=        512, read_write_same_addr_p=          0, harden_p=          0 (test_bp.DUT.genblk1[0].fe.bp_fe_pc_gen_1.genblk1.branch_prediction_1.btb_1.bsg_mem_1rw_sync_synth_1)
## bsg_mem_1rw_sync_mask_write_bit: instantiating width_p=        112, els_p=         16 (test_bp.DUT.genblk1[0].fe.icache_1.tag_mem)
## bsg_mem_1rw_sync_mask_write_bit: instantiating width_p=          7, els_p=         16 (test_bp.DUT.genblk1[0].fe.icache_1.metadata_mem)
## bsg_mem_1r1w: instantiating width_p=        36, els_p=          2, read_write_same_addr_p=          0, harden_p=          0 (test_bp.DUT.genblk1[0].fe.icache_1.lce.lce_cmd_fifo.mem_1r1w)
## bsg_mem_1r1w: instantiating width_p=       540, els_p=          2, read_write_same_addr_p=          0, harden_p=          0 (test_bp.DUT.genblk1[0].fe.icache_1.lce.lce_data_cmd_fifo.mem_1r1w)
## bsg_mem_1r1w: instantiating width_p=       539, els_p=          2, read_write_same_addr_p=          0, harden_p=          0 (test_bp.DUT.genblk1[0].fe.icache_1.lce.lce_tr_resp_in_fifo.mem_1r1w)
## bsg_mem_1rw_sync_synth: instantiating width_p=          8, els_p=        128 (test_bp.DUT.genblk1[0].fe.icache_1.data_mem_banks[0].data_mem_bank.synth.bk[0].mem_1rw_sync.synth)
## bsg_mem_1rw_sync_synth: instantiating width_p=          8, els_p=        128 (test_bp.DUT.genblk1[0].fe.icache_1.data_mem_banks[0].data_mem_bank.synth.bk[1].mem_1rw_sync.synth)
## bsg_mem_1rw_sync_synth: instantiating width_p=          8, els_p=        128 (test_bp.DUT.genblk1[0].fe.icache_1.data_mem_banks[0].data_mem_bank.synth.bk[2].mem_1rw_sync.synth)
## bsg_mem_1rw_sync_synth: instantiating width_p=          8, els_p=        128 (test_bp.DUT.genblk1[0].fe.icache_1.data_mem_banks[0].data_mem_bank.synth.bk[3].mem_1rw_sync.synth)
## bsg_mem_1rw_sync_synth: instantiating width_p=          8, els_p=        128 (test_bp.DUT.genblk1[0].fe.icache_1.data_mem_banks[0].data_mem_bank.synth.bk[4].mem_1rw_sync.synth)
## bsg_mem_1rw_sync_synth: instantiating width_p=          8, els_p=        128 (test_bp.DUT.genblk1[0].fe.icache_1.data_mem_banks[0].data_mem_bank.synth.bk[5].mem_1rw_sync.synth)
## bsg_mem_1rw_sync_synth: instantiating width_p=          8, els_p=        128 (test_bp.DUT.genblk1[0].fe.icache_1.data_mem_banks[0].data_mem_bank.synth.bk[6].mem_1rw_sync.synth)
## bsg_mem_1rw_sync_synth: instantiating width_p=          8, els_p=        128 (test_bp.DUT.genblk1[0].fe.icache_1.data_mem_banks[0].data_mem_bank.synth.bk[7].mem_1rw_sync.synth)
## bsg_mem_1rw_sync_mask_write_byte: instantiating data_width_p=         64, els_p=        128 (test_bp.DUT.genblk1[0].fe.icache_1.data_mem_banks[0].data_mem_bank)
## bsg_mem_1rw_sync_synth: instantiating width_p=          8, els_p=        128 (test_bp.DUT.genblk1[0].fe.icache_1.data_mem_banks[1].data_mem_bank.synth.bk[0].mem_1rw_sync.synth)
## bsg_mem_1rw_sync_synth: instantiating width_p=          8, els_p=        128 (test_bp.DUT.genblk1[0].fe.icache_1.data_mem_banks[1].data_mem_bank.synth.bk[1].mem_1rw_sync.synth)
## bsg_mem_1rw_sync_synth: instantiating width_p=          8, els_p=        128 (test_bp.DUT.genblk1[0].fe.icache_1.data_mem_banks[1].data_mem_bank.synth.bk[2].mem_1rw_sync.synth)
## bsg_mem_1rw_sync_synth: instantiating width_p=          8, els_p=        128 (test_bp.DUT.genblk1[0].fe.icache_1.data_mem_banks[1].data_mem_bank.synth.bk[3].mem_1rw_sync.synth)
## bsg_mem_1rw_sync_synth: instantiating width_p=          8, els_p=        128 (test_bp.DUT.genblk1[0].fe.icache_1.data_mem_banks[1].data_mem_bank.synth.bk[4].mem_1rw_sync.synth)
## bsg_mem_1rw_sync_synth: instantiating width_p=          8, els_p=        128 (test_bp.DUT.genblk1[0].fe.icache_1.data_mem_banks[1].data_mem_bank.synth.bk[5].mem_1rw_sync.synth)
## bsg_mem_1rw_sync_synth: instantiating width_p=          8, els_p=        128 (test_bp.DUT.genblk1[0].fe.icache_1.data_mem_banks[1].data_mem_bank.synth.bk[6].mem_1rw_sync.synth)
## bsg_mem_1rw_sync_synth: instantiating width_p=          8, els_p=        128 (test_bp.DUT.genblk1[0].fe.icache_1.data_mem_banks[1].data_mem_bank.synth.bk[7].mem_1rw_sync.synth)
## bsg_mem_1rw_sync_mask_write_byte: instantiating data_width_p=         64, els_p=        128 (test_bp.DUT.genblk1[0].fe.icache_1.data_mem_banks[1].data_mem_bank)
## bsg_mem_1rw_sync_synth: instantiating width_p=          8, els_p=        128 (test_bp.DUT.genblk1[0].fe.icache_1.data_mem_banks[2].data_mem_bank.synth.bk[0].mem_1rw_sync.synth)
## bsg_mem_1rw_sync_synth: instantiating width_p=          8, els_p=        128 (test_bp.DUT.genblk1[0].fe.icache_1.data_mem_banks[2].data_mem_bank.synth.bk[1].mem_1rw_sync.synth)
## bsg_mem_1rw_sync_synth: instantiating width_p=          8, els_p=        128 (test_bp.DUT.genblk1[0].fe.icache_1.data_mem_banks[2].data_mem_bank.synth.bk[2].mem_1rw_sync.synth)
## bsg_mem_1rw_sync_synth: instantiating width_p=          8, els_p=        128 (test_bp.DUT.genblk1[0].fe.icache_1.data_mem_banks[2].data_mem_bank.synth.bk[3].mem_1rw_sync.synth)
## bsg_mem_1rw_sync_synth: instantiating width_p=          8, els_p=        128 (test_bp.DUT.genblk1[0].fe.icache_1.data_mem_banks[2].data_mem_bank.synth.bk[4].mem_1rw_sync.synth)
## bsg_mem_1rw_sync_synth: instantiating width_p=          8, els_p=        128 (test_bp.DUT.genblk1[0].fe.icache_1.data_mem_banks[2].data_mem_bank.synth.bk[5].mem_1rw_sync.synth)
## bsg_mem_1rw_sync_synth: instantiating width_p=          8, els_p=        128 (test_bp.DUT.genblk1[0].fe.icache_1.data_mem_banks[2].data_mem_bank.synth.bk[6].mem_1rw_sync.synth)
## bsg_mem_1rw_sync_synth: instantiating width_p=          8, els_p=        128 (test_bp.DUT.genblk1[0].fe.icache_1.data_mem_banks[2].data_mem_bank.synth.bk[7].mem_1rw_sync.synth)
## bsg_mem_1rw_sync_mask_write_byte: instantiating data_width_p=         64, els_p=        128 (test_bp.DUT.genblk1[0].fe.icache_1.data_mem_banks[2].data_mem_bank)
## bsg_mem_1rw_sync_synth: instantiating width_p=          8, els_p=        128 (test_bp.DUT.genblk1[0].fe.icache_1.data_mem_banks[3].data_mem_bank.synth.bk[0].mem_1rw_sync.synth)
## bsg_mem_1rw_sync_synth: instantiating width_p=          8, els_p=        128 (test_bp.DUT.genblk1[0].fe.icache_1.data_mem_banks[3].data_mem_bank.synth.bk[1].mem_1rw_sync.synth)
## bsg_mem_1rw_sync_synth: instantiating width_p=          8, els_p=        128 (test_bp.DUT.genblk1[0].fe.icache_1.data_mem_banks[3].data_mem_bank.synth.bk[2].mem_1rw_sync.synth)
## bsg_mem_1rw_sync_synth: instantiating width_p=          8, els_p=        128 (test_bp.DUT.genblk1[0].fe.icache_1.data_mem_banks[3].data_mem_bank.synth.bk[3].mem_1rw_sync.synth)
## bsg_mem_1rw_sync_synth: instantiating width_p=          8, els_p=        128 (test_bp.DUT.genblk1[0].fe.icache_1.data_mem_banks[3].data_mem_bank.synth.bk[4].mem_1rw_sync.synth)
## bsg_mem_1rw_sync_synth: instantiating width_p=          8, els_p=        128 (test_bp.DUT.genblk1[0].fe.icache_1.data_mem_banks[3].data_mem_bank.synth.bk[5].mem_1rw_sync.synth)
## bsg_mem_1rw_sync_synth: instantiating width_p=          8, els_p=        128 (test_bp.DUT.genblk1[0].fe.icache_1.data_mem_banks[3].data_mem_bank.synth.bk[6].mem_1rw_sync.synth)
## bsg_mem_1rw_sync_synth: instantiating width_p=          8, els_p=        128 (test_bp.DUT.genblk1[0].fe.icache_1.data_mem_banks[3].data_mem_bank.synth.bk[7].mem_1rw_sync.synth)
## bsg_mem_1rw_sync_mask_write_byte: instantiating data_width_p=         64, els_p=        128 (test_bp.DUT.genblk1[0].fe.icache_1.data_mem_banks[3].data_mem_bank)
## bsg_mem_1rw_sync_synth: instantiating width_p=          8, els_p=        128 (test_bp.DUT.genblk1[0].fe.icache_1.data_mem_banks[4].data_mem_bank.synth.bk[0].mem_1rw_sync.synth)
## bsg_mem_1rw_sync_synth: instantiating width_p=          8, els_p=        128 (test_bp.DUT.genblk1[0].fe.icache_1.data_mem_banks[4].data_mem_bank.synth.bk[1].mem_1rw_sync.synth)
## bsg_mem_1rw_sync_synth: instantiating width_p=          8, els_p=        128 (test_bp.DUT.genblk1[0].fe.icache_1.data_mem_banks[4].data_mem_bank.synth.bk[2].mem_1rw_sync.synth)
## bsg_mem_1rw_sync_synth: instantiating width_p=          8, els_p=        128 (test_bp.DUT.genblk1[0].fe.icache_1.data_mem_banks[4].data_mem_bank.synth.bk[3].mem_1rw_sync.synth)
## bsg_mem_1rw_sync_synth: instantiating width_p=          8, els_p=        128 (test_bp.DUT.genblk1[0].fe.icache_1.data_mem_banks[4].data_mem_bank.synth.bk[4].mem_1rw_sync.synth)
## bsg_mem_1rw_sync_synth: instantiating width_p=          8, els_p=        128 (test_bp.DUT.genblk1[0].fe.icache_1.data_mem_banks[4].data_mem_bank.synth.bk[5].mem_1rw_sync.synth)
## bsg_mem_1rw_sync_synth: instantiating width_p=          8, els_p=        128 (test_bp.DUT.genblk1[0].fe.icache_1.data_mem_banks[4].data_mem_bank.synth.bk[6].mem_1rw_sync.synth)
## bsg_mem_1rw_sync_synth: instantiating width_p=          8, els_p=        128 (test_bp.DUT.genblk1[0].fe.icache_1.data_mem_banks[4].data_mem_bank.synth.bk[7].mem_1rw_sync.synth)
## bsg_mem_1rw_sync_mask_write_byte: instantiating data_width_p=         64, els_p=        128 (test_bp.DUT.genblk1[0].fe.icache_1.data_mem_banks[4].data_mem_bank)
## bsg_mem_1rw_sync_synth: instantiating width_p=          8, els_p=        128 (test_bp.DUT.genblk1[0].fe.icache_1.data_mem_banks[5].data_mem_bank.synth.bk[0].mem_1rw_sync.synth)
## bsg_mem_1rw_sync_synth: instantiating width_p=          8, els_p=        128 (test_bp.DUT.genblk1[0].fe.icache_1.data_mem_banks[5].data_mem_bank.synth.bk[1].mem_1rw_sync.synth)
## bsg_mem_1rw_sync_synth: instantiating width_p=          8, els_p=        128 (test_bp.DUT.genblk1[0].fe.icache_1.data_mem_banks[5].data_mem_bank.synth.bk[2].mem_1rw_sync.synth)
## bsg_mem_1rw_sync_synth: instantiating width_p=          8, els_p=        128 (test_bp.DUT.genblk1[0].fe.icache_1.data_mem_banks[5].data_mem_bank.synth.bk[3].mem_1rw_sync.synth)
## bsg_mem_1rw_sync_synth: instantiating width_p=          8, els_p=        128 (test_bp.DUT.genblk1[0].fe.icache_1.data_mem_banks[5].data_mem_bank.synth.bk[4].mem_1rw_sync.synth)
## bsg_mem_1rw_sync_synth: instantiating width_p=          8, els_p=        128 (test_bp.DUT.genblk1[0].fe.icache_1.data_mem_banks[5].data_mem_bank.synth.bk[5].mem_1rw_sync.synth)
## bsg_mem_1rw_sync_synth: instantiating width_p=          8, els_p=        128 (test_bp.DUT.genblk1[0].fe.icache_1.data_mem_banks[5].data_mem_bank.synth.bk[6].mem_1rw_sync.synth)
## bsg_mem_1rw_sync_synth: instantiating width_p=          8, els_p=        128 (test_bp.DUT.genblk1[0].fe.icache_1.data_mem_banks[5].data_mem_bank.synth.bk[7].mem_1rw_sync.synth)
## bsg_mem_1rw_sync_mask_write_byte: instantiating data_width_p=         64, els_p=        128 (test_bp.DUT.genblk1[0].fe.icache_1.data_mem_banks[5].data_mem_bank)
## bsg_mem_1rw_sync_synth: instantiating width_p=          8, els_p=        128 (test_bp.DUT.genblk1[0].fe.icache_1.data_mem_banks[6].data_mem_bank.synth.bk[0].mem_1rw_sync.synth)
## bsg_mem_1rw_sync_synth: instantiating width_p=          8, els_p=        128 (test_bp.DUT.genblk1[0].fe.icache_1.data_mem_banks[6].data_mem_bank.synth.bk[1].mem_1rw_sync.synth)
## bsg_mem_1rw_sync_synth: instantiating width_p=          8, els_p=        128 (test_bp.DUT.genblk1[0].fe.icache_1.data_mem_banks[6].data_mem_bank.synth.bk[2].mem_1rw_sync.synth)
## bsg_mem_1rw_sync_synth: instantiating width_p=          8, els_p=        128 (test_bp.DUT.genblk1[0].fe.icache_1.data_mem_banks[6].data_mem_bank.synth.bk[3].mem_1rw_sync.synth)
## bsg_mem_1rw_sync_synth: instantiating width_p=          8, els_p=        128 (test_bp.DUT.genblk1[0].fe.icache_1.data_mem_banks[6].data_mem_bank.synth.bk[4].mem_1rw_sync.synth)
## bsg_mem_1rw_sync_synth: instantiating width_p=          8, els_p=        128 (test_bp.DUT.genblk1[0].fe.icache_1.data_mem_banks[6].data_mem_bank.synth.bk[5].mem_1rw_sync.synth)
## bsg_mem_1rw_sync_synth: instantiating width_p=          8, els_p=        128 (test_bp.DUT.genblk1[0].fe.icache_1.data_mem_banks[6].data_mem_bank.synth.bk[6].mem_1rw_sync.synth)
## bsg_mem_1rw_sync_synth: instantiating width_p=          8, els_p=        128 (test_bp.DUT.genblk1[0].fe.icache_1.data_mem_banks[6].data_mem_bank.synth.bk[7].mem_1rw_sync.synth)
## bsg_mem_1rw_sync_mask_write_byte: instantiating data_width_p=         64, els_p=        128 (test_bp.DUT.genblk1[0].fe.icache_1.data_mem_banks[6].data_mem_bank)
## bsg_mem_1rw_sync_synth: instantiating width_p=          8, els_p=        128 (test_bp.DUT.genblk1[0].fe.icache_1.data_mem_banks[7].data_mem_bank.synth.bk[0].mem_1rw_sync.synth)
## bsg_mem_1rw_sync_synth: instantiating width_p=          8, els_p=        128 (test_bp.DUT.genblk1[0].fe.icache_1.data_mem_banks[7].data_mem_bank.synth.bk[1].mem_1rw_sync.synth)
## bsg_mem_1rw_sync_synth: instantiating width_p=          8, els_p=        128 (test_bp.DUT.genblk1[0].fe.icache_1.data_mem_banks[7].data_mem_bank.synth.bk[2].mem_1rw_sync.synth)
## bsg_mem_1rw_sync_synth: instantiating width_p=          8, els_p=        128 (test_bp.DUT.genblk1[0].fe.icache_1.data_mem_banks[7].data_mem_bank.synth.bk[3].mem_1rw_sync.synth)
## bsg_mem_1rw_sync_synth: instantiating width_p=          8, els_p=        128 (test_bp.DUT.genblk1[0].fe.icache_1.data_mem_banks[7].data_mem_bank.synth.bk[4].mem_1rw_sync.synth)
## bsg_mem_1rw_sync_synth: instantiating width_p=          8, els_p=        128 (test_bp.DUT.genblk1[0].fe.icache_1.data_mem_banks[7].data_mem_bank.synth.bk[5].mem_1rw_sync.synth)
## bsg_mem_1rw_sync_synth: instantiating width_p=          8, els_p=        128 (test_bp.DUT.genblk1[0].fe.icache_1.data_mem_banks[7].data_mem_bank.synth.bk[6].mem_1rw_sync.synth)
## bsg_mem_1rw_sync_synth: instantiating width_p=          8, els_p=        128 (test_bp.DUT.genblk1[0].fe.icache_1.data_mem_banks[7].data_mem_bank.synth.bk[7].mem_1rw_sync.synth)
## bsg_mem_1rw_sync_mask_write_byte: instantiating data_width_p=         64, els_p=        128 (test_bp.DUT.genblk1[0].fe.icache_1.data_mem_banks[7].data_mem_bank)
## bsg_mem_1r1w: instantiating width_p=        134, els_p=         16, read_write_same_addr_p=          0, harden_p=          0 (test_bp.DUT.genblk1[0].fe_queue_fifo.fifo_mem)
## bsg_mem_1r1w: instantiating width_p=        109, els_p=          8, read_write_same_addr_p=          0, harden_p=          0 (test_bp.DUT.genblk1[0].fe_cmd_fifo.mem_1r1w)
## bsg_mem_2r1w_sync: instantiating width_p=         64, els_p=         32, read_write_same_addr_p=          0, harden_p=          0 (test_bp.DUT.genblk1[0].be.calculator.int_regfile.rf)
## bsg_mem_2r1w_sync: instantiating width_p=         64, els_p=         32, read_write_same_addr_p=          0, harden_p=          0 (test_bp.DUT.genblk1[0].be.calculator.float_regfile.rf)
## bsg_mem_1rw_sync_mask_write_bit: instantiating width_p=       112, els_p=         16 (test_bp.DUT.genblk1[0].be.mmu.dcache.tag_mem)
## bsg_mem_1rw_sync_mask_write_bit: instantiating width_p=         15, els_p=         16 (test_bp.DUT.genblk1[0].be.mmu.dcache.stat_mem)
## bsg_mem_1r1w: instantiating width_p=         36, els_p=          2, read_write_same_addr_p=          0, harden_p=          0 (test_bp.DUT.genblk1[0].be.mmu.dcache.lce.lce_cmd_fifo.mem_1r1w)
## bsg_mem_1r1w: instantiating width_p=        540, els_p=          2, read_write_same_addr_p=          0, harden_p=          0 (test_bp.DUT.genblk1[0].be.mmu.dcache.lce.lce_data_cmd_fifo.mem_1r1w)
## bsg_mem_1r1w: instantiating width_p=        539, els_p=          2, read_write_same_addr_p=          0, harden_p=          0 (test_bp.DUT.genblk1[0].be.mmu.dcache.lce.lce_tr_resp_in_fifo.mem_1r1w)
## bsg_mem_1rw_sync_synth: instantiating width_p=          8, els_p=        128 (test_bp.DUT.genblk1[0].be.mmu.dcache.genblk1[0].data_mem.synth.bk[0].mem_1rw_sync.synth)
## bsg_mem_1rw_sync_synth: instantiating width_p=          8, els_p=        128 (test_bp.DUT.genblk1[0].be.mmu.dcache.genblk1[0].data_mem.synth.bk[1].mem_1rw_sync.synth)
## bsg_mem_1rw_sync_synth: instantiating width_p=          8, els_p=        128 (test_bp.DUT.genblk1[0].be.mmu.dcache.genblk1[0].data_mem.synth.bk[2].mem_1rw_sync.synth)
## bsg_mem_1rw_sync_synth: instantiating width_p=          8, els_p=        128 (test_bp.DUT.genblk1[0].be.mmu.dcache.genblk1[0].data_mem.synth.bk[3].mem_1rw_sync.synth)
## bsg_mem_1rw_sync_synth: instantiating width_p=          8, els_p=        128 (test_bp.DUT.genblk1[0].be.mmu.dcache.genblk1[0].data_mem.synth.bk[4].mem_1rw_sync.synth)
## bsg_mem_1rw_sync_synth: instantiating width_p=          8, els_p=        128 (test_bp.DUT.genblk1[0].be.mmu.dcache.genblk1[0].data_mem.synth.bk[5].mem_1rw_sync.synth)
## bsg_mem_1rw_sync_synth: instantiating width_p=          8, els_p=        128 (test_bp.DUT.genblk1[0].be.mmu.dcache.genblk1[0].data_mem.synth.bk[6].mem_1rw_sync.synth)
## bsg_mem_1rw_sync_synth: instantiating width_p=          8, els_p=        128 (test_bp.DUT.genblk1[0].be.mmu.dcache.genblk1[0].data_mem.synth.bk[7].mem_1rw_sync.synth)
## bsg_mem_1rw_sync_mask_write_byte: instantiating data_width_p=         64, els_p=        128 (test_bp.DUT.genblk1[0].be.mmu.dcache.genblk1[0].data_mem)
## bsg_mem_1rw_sync_synth: instantiating width_p=          8, els_p=        128 (test_bp.DUT.genblk1[0].be.mmu.dcache.genblk1[1].data_mem.synth.bk[0].mem_1rw_sync.synth)
## bsg_mem_1rw_sync_synth: instantiating width_p=          8, els_p=        128 (test_bp.DUT.genblk1[0].be.mmu.dcache.genblk1[1].data_mem.synth.bk[1].mem_1rw_sync.synth)
## bsg_mem_1rw_sync_synth: instantiating width_p=          8, els_p=        128 (test_bp.DUT.genblk1[0].be.mmu.dcache.genblk1[1].data_mem.synth.bk[2].mem_1rw_sync.synth)
## bsg_mem_1rw_sync_synth: instantiating width_p=          8, els_p=        128 (test_bp.DUT.genblk1[0].be.mmu.dcache.genblk1[1].data_mem.synth.bk[3].mem_1rw_sync.synth)
## bsg_mem_1rw_sync_synth: instantiating width_p=          8, els_p=        128 (test_bp.DUT.genblk1[0].be.mmu.dcache.genblk1[1].data_mem.synth.bk[4].mem_1rw_sync.synth)
## bsg_mem_1rw_sync_synth: instantiating width_p=          8, els_p=        128 (test_bp.DUT.genblk1[0].be.mmu.dcache.genblk1[1].data_mem.synth.bk[5].mem_1rw_sync.synth)
## bsg_mem_1rw_sync_synth: instantiating width_p=          8, els_p=        128 (test_bp.DUT.genblk1[0].be.mmu.dcache.genblk1[1].data_mem.synth.bk[6].mem_1rw_sync.synth)
## bsg_mem_1rw_sync_synth: instantiating width_p=          8, els_p=        128 (test_bp.DUT.genblk1[0].be.mmu.dcache.genblk1[1].data_mem.synth.bk[7].mem_1rw_sync.synth)
## bsg_mem_1rw_sync_mask_write_byte: instantiating data_width_p=         64, els_p=        128 (test_bp.DUT.genblk1[0].be.mmu.dcache.genblk1[1].data_mem)
## bsg_mem_1rw_sync_synth: instantiating width_p=          8, els_p=        128 (test_bp.DUT.genblk1[0].be.mmu.dcache.genblk1[2].data_mem.synth.bk[0].mem_1rw_sync.synth)
## bsg_mem_1rw_sync_synth: instantiating width_p=          8, els_p=        128 (test_bp.DUT.genblk1[0].be.mmu.dcache.genblk1[2].data_mem.synth.bk[1].mem_1rw_sync.synth)
## bsg_mem_1rw_sync_synth: instantiating width_p=          8, els_p=        128 (test_bp.DUT.genblk1[0].be.mmu.dcache.genblk1[2].data_mem.synth.bk[2].mem_1rw_sync.synth)
## bsg_mem_1rw_sync_synth: instantiating width_p=          8, els_p=        128 (test_bp.DUT.genblk1[0].be.mmu.dcache.genblk1[2].data_mem.synth.bk[3].mem_1rw_sync.synth)
## bsg_mem_1rw_sync_synth: instantiating width_p=          8, els_p=        128 (test_bp.DUT.genblk1[0].be.mmu.dcache.genblk1[2].data_mem.synth.bk[4].mem_1rw_sync.synth)
## bsg_mem_1rw_sync_synth: instantiating width_p=          8, els_p=        128 (test_bp.DUT.genblk1[0].be.mmu.dcache.genblk1[2].data_mem.synth.bk[5].mem_1rw_sync.synth)
## bsg_mem_1rw_sync_synth: instantiating width_p=          8, els_p=        128 (test_bp.DUT.genblk1[0].be.mmu.dcache.genblk1[2].data_mem.synth.bk[6].mem_1rw_sync.synth)
